02 teaching the tidyverse
…
```r
(staff_long <- staff %>%
  pivot_longer(
    cols = -faculty_type,    # columns to pivot
    names_to = "year",       # name of new column for variable names
    values_to = "percentage" # name of new column for values
  ) %>%
  mutate(
    percentage = as.numeric(percentage)
  )
)
```

```
## # A tibble: 55 x 3
##    faculty_type              year  percentage
##    <chr>                     <chr>      <dbl>
##  1 Full-Time Tenured Faculty 1975        29  
##  2 Full-Time Tenured Faculty 1989        27.6
##  3 Full-Time Tenured Faculty 1993        25  
##  4 Full-Time Tenured Faculty 1995        24.8
##  5 Full-Time Tenured Faculty 1999        21.8
##  6 Full-Time Tenured Faculty 2001        20.3
##  7 Full-Time Tenured Faculty 2003        19.3
##  8 Full-Time Tenured Faculty 2005        17.8
##  9 Full-Time Tenured Faculty 2007        17.2
## 10 Full-Time Tenured Faculty 2009        16.8
## # … with 45 more rows
```
…
      bind_cols(as_tibble(l), purchases)
    }
  )
```
]

---

## purr solution

.small[

```
## # A tibble: 620 x 15
##    gender first_name last_name    age phone_number SetID Number Theme  Subtheme 
##    <chr>  <chr>      <chr>      <dbl> <chr>        <int> <chr>  <chr>  <chr>    
##  1 Female Kimberly   Beckstead     24 216-555-2549 24701 76062  DC Co… "Mighty …
##  2 Male   Neel       Garvin        35 819-555-3189 25626 70595  Ninja… "Rise of…
##  3 Male   Neel       Garvin        35 819-555-3189 24665 21031  Archi… ""       
##  4 Female Chelsea    Bouchard      41 <NA>         24695 31048  Creat… ""       
##  5 Female Chelsea    Bouchard      41 <NA>         25626 70595  Ninja… "Rise of…
##  6 Female Chelsea    Bouchard      41 <NA>         24721 10831  Duplo  ""       
##  7 Female Bryanna    Welsh         19 <NA>         24797 75138  Star … "Episode…
##  8 Female Bryanna    Welsh         19 <NA>         24701 76062  DC Co… "Mighty …
##  9 Male   Caleb      Garcia-Wi…    37 907-555-9236 24730 41115  Frien… ""       
## 10 Male   Caleb      Garcia-Wi…    37 907-555-9236 25611 21127  Minec… "Minifig…
## # … with 610 more rows, and 6 more variables: Year <int>, Name <chr>,
## #   Pieces <int>, USPrice <dbl>, ImageURL <chr>, Quantity <dbl>
```
…
---

## A tidyr solution

.small[

```r
tibble(sales = sales) %>%
  unnest_wider(sales) %>%
  unnest_longer(purchases) %>%
  unnest_wider(purchases)
```

```
## # A tibble: 620 x 15
##    gender first_name last_name    age phone_number SetID Number Theme  Subtheme 
##    <chr>  <chr>      <chr>      <dbl> <chr>        <int> <chr>  <chr>  <chr>    
##  1 Female Kimberly   Beckstead     24 216-555-2549 24701 76062  DC Co… "Mighty …
##  2 Male   Neel       Garvin        35 819-555-3189 25626 70595  Ninja… "Rise of…
##  3 Male   Neel       Garvin        35 819-555-3189 24665 21031  Archi… ""       
##  4 Female Chelsea    Bouchard      41 <NA>         24695 31048  Creat… ""       
##  5 Female Chelsea    Bouchard      41 <NA>         25626 70595  Ninja… "Rise of…
##  6 Female Chelsea    Bouchard      41 <NA>         24721 10831  Duplo  ""       
##  7 Female Bryanna    Welsh         19 <NA>         24797 75138  Star … "Episode…
##  8 Female Bryanna    Welsh         19 <NA>         24701 76062  DC Co… "Mighty …
##  9 Male   Caleb      Garcia-Wi…    37 907-555-9236 24730 41115  Frien… ""       
## 10 Male   Caleb      Garcia-Wi…    37 907-555-9236 25611 21127  Minec… "Minifig…
## # … with 610 more rows, and 6 more variables: Year <int>, Name <chr>,
## #   Pieces <int>, USPrice <dbl>, ImageURL <chr>, Quantity <dbl>
```
]

---

## tidyr solution (Step 1)

.small[

```r
tibble(sales = sales)
```

```
## # A tibble: 250 x 1
##    sales           
##    <list>          
##  1 <named list [6]>
##  2 <named list [6]>
##  3 <named list [5]>
##  4 <named list [5]>
##  5 <named list [6]>
##  6 <named list [6]>
##  7 <named list [6]>
##  8 <named list [6]>
##  9 <named list [6]>
## 10 <named list [6]>
## # … with 240 more rows
```
]

---

## tidyr solution (Step 2)

.small[

```r
tibble(sales = sales) %>%
  unnest_wider(sales)
```

```
## # A tibble: 250 x 6
##    gender first_name last_name        age phone_number purchases 
##    <chr>  <chr>      <chr>          <dbl> <chr>        <list>    
##  1 Female Kimberly   Beckstead         24 216-555-2549 <list [1]>
##  2 Male   Neel       Garvin            35 819-555-3189 <list [2]>
##  3 Female Chelsea    Bouchard          41 <NA>         <list [3]>
##  4 Female Bryanna    Welsh             19 <NA>         <list [2]>
##  5 Male   Caleb      Garcia-Wideman    37 907-555-9236 <list [2]>
##  6 Male   Chase      Fortenberry       19 205-555-3704 <list [2]>
##  7 Male   Kevin      Cruz              20 947-555-7946 <list [1]>
##  8 Male   Connor     Brown             36 516-555-4310 <list [3]>
##  9 Female Toni       Borison           40 284-555-4560 <list [2]>
## 10 Male   Daniel     Hurst             44 251-555-0845 <list [2]>
## # … with 240 more rows
```
…
---

## tidyr solution (Step 3)

.small[

```r
tibble(sales = sales) %>%
  unnest_wider(sales) %>%
  unnest_longer(purchases)
```

```
## # A tibble: 620 x 6
##    gender first_name last_name        age phone_number purchases        
##    <chr>  <chr>      <chr>          <dbl> <chr>        <list>           
##  1 Female Kimberly   Beckstead         24 216-555-2549 <named list [10]>
##  2 Male   Neel       Garvin            35 819-555-3189 <named list [10]>
##  3 Male   Neel       Garvin            35 819-555-3189 <named list [10]>
##  4 Female Chelsea    Bouchard          41 <NA>         <named list [10]>
##  5 Female Chelsea    Bouchard          41 <NA>         <named list [10]>
##  6 Female Chelsea    Bouchard          41 <NA>         <named list [10]>
##  7 Female Bryanna    Welsh             19 <NA>         <named list [10]>
##  8 Female Bryanna    Welsh             19 <NA>         <named list [10]>
##  9 Male   Caleb      Garcia-Wideman    37 907-555-9236 <named list [10]>
## 10 Male   Caleb      Garcia-Wideman    37 907-555-9236 <named list [10]>
## # … with 610 more rows
```
…
---

## tidyr solution (Step 4)

.small[

```r
tibble(sales = sales) %>%
  unnest_wider(sales) %>%
  unnest_longer(purchases) %>%
  unnest_wider(purchases)
```

```
## # A tibble: 620 x 15
##    gender first_name last_name    age phone_number SetID Number Theme  Subtheme 
##    <chr>  <chr>      <chr>      <dbl> <chr>        <int> <chr>  <chr>  <chr>    
##  1 Female Kimberly   Beckstead     24 216-555-2549 24701 76062  DC Co… "Mighty …
##  2 Male   Neel       Garvin        35 819-555-3189 25626 70595  Ninja… "Rise of…
##  3 Male   Neel       Garvin        35 819-555-3189 24665 21031  Archi… ""       
##  4 Female Chelsea    Bouchard      41 <NA>         24695 31048  Creat… ""       
##  5 Female Chelsea    Bouchard      41 <NA>         25626 70595  Ninja… "Rise of…
##  6 Female Chelsea    Bouchard      41 <NA>         24721 10831  Duplo  ""       
##  7 Female Bryanna    Welsh         19 <NA>         24797 75138  Star … "Episode…
##  8 Female Bryanna    Welsh         19 <NA>         24701 76062  DC Co… "Mighty …
##  9 Male   Caleb      Garcia-Wi…    37 907-555-9236 24730 41115  Frien… ""       
## 10 Male   Caleb      Garcia-Wi…    37 907-555-9236 25611 21127  Minec… "Minifig…
## # … with 610 more rows, and 6 more variables: Year <int>, Name <chr>,
## #   Pieces <int>, USPrice <dbl>, ImageURL <chr>, Quantity <dbl>
```
…
